{
    "antifeatures": {
        "Ads": "Tiu ĉi aplikaĵo enhavas reklamojn",
        "DisabledAlgorithm": "Tiu ĉi aplikaĵo posedas malfortan sekurecan subskribon",
        "KnownVuln": "Tiu ĉi aplikaĵo posedas sekurecan vundeblon",
        "NoSourceSince": "La fontkodo ne estas plu disponebla, neniuj eblaj ĝisdatigoj",
        "NonFreeAdd": "Tiu ĉi aplikaĵo favoras neliberajn aldonaĵojn",
        "NonFreeAssets": "Tiu ĉi aplikaĵo enhavas neliberan enhavon",
        "NonFreeDep": "Tiu ĉi aplikaĵo dependas de aliaj neliberaj aplikaĵoj",
        "NonFreeNet": "Tiu ĉi aplikaĵo favoras neliberajn retservojn",
        "Tracking": "Tiu ĉi aplikaĵo spuras kaj raportas vian agadon",
        "UpstreamNonFree": "La fontkodo ne estas tute libera"
    },
    "index": {
        "download_fdroid": "Elŝuti F-Droid",
        "gpg_signature": "PGP-subskribo",
        "introduction": "F-Droid estas instalebla katalogo de Libera kaj Malfermkoda Programaro por operaciumo Android. La kliento plifaciligas foliumadon, instaladon kaj spuradon de ĝisdatigoj ĉe via aparato.",
        "screenshot": "Ekrankopio de F-Droid ĉe Android",
        "title": "Kio estas F-Droid?"
    },
    "navigation": {
        "about": "Pri",
        "browse": "Esplori",
        "contribute": "Kontribui",
        "documentation": "Dokumentaro",
        "forum": "Forumo",
        "issues": "Problemoj",
        "news": "Novaĵoj"
    },
    "package": {
        "anti_features": "Fiebloj",
        "anti_features_warning": "Tiu ĉi aplikaĵo enhavas eblojn, kiujn vi eble ne ŝatas.",
        "author": "Aŭtoro",
        "build_metadata": "Kompilaj metadatumoj",
        "changelog": "Ŝanĝoprotokolo",
        "donate": "Donaci",
        "download": "Elŝuti [file_extension]",
        "flattr": "Flattr",
        "gpg_signature": "PGP-subskribo",
        "issue_tracker": "Erar-spurilo",
        "liberapay": "Liberapay",
        "license": "Permesilo",
        "minimum_android_version": "Tiu ĉi versio postulas Androidon [android_version] aŭ pli novan.",
        "new_in_version": "Novaj en versio [latest_version]",
        "packages": "Pakaĵoj",
        "permissions": "Permesoj",
        "signed_by_developer": "Ĝi estas kompilita kaj subskribita de la programisto mem.",
        "signed_by_fdroid": "Ĝi estas kompilita kaj subskribita de F-Droid kaj oni garantias identecon kun <a href=\"[source_code_url]\">tiu ĉi fontkoda pakaĵo</a>.",
        "source_code": "Fontkodo",
        "suggest_downloading_via_fdroid": "Kvankam APK-oj elŝuteblas sube, vi devus scii, ke per instali tiumaniere vi ne ricevos sciigojn pri ĝisdatigoj kaj tio estas malpli sekura maniero por elŝuti. Ni konsilas por ke vi instalu klienton F-Droid kaj uzu ĝin.",
        "technical_info": "Teĥnikaj detaloj",
        "translation": "Traduki",
        "version_info": "<b>Versio [package_version]</b> ([package_version_code]) - aldonita je [package_added_date]",
        "website": "Retejo"
    },
    "permissions": {
        "permdesc_acceptHandovers": "Permesas al aplikaĵo pluigi telefonvokojn startigitan per alia aplikaĵo.",
        "permdesc_accessCoarseLocation": "Tiu ĉi aplikaĵo povas determini vian pozicion per sendrataj retoj (Wi-Fi, GSM). Tiuj pozici-trovaj servoj estus aktivaj kaj disponeblaj en via telefono por ke aplikaĵo povu uzi ilin.",
        "permdesc_accessDrmCertificates": "Permesas al aplikaĵo aldoni kaj uzi atestilojn DRM. Neniam uzata de kutimaj aplikaĵoj.",
        "permdesc_accessFineLocation": "Tiu ĉi aplikaĵo povas determini vian pozicion per GPS aŭ per sendrataj retoj (WI-Fi, GSM). Tiuj pozici-trovaj servoj estu aktivaj kaj disponeblaj en via telefono por ke la aplikaĵo povu uzi ilin. Povas pliigi konsumon da baterio.",
        "permdesc_accessImsCallService": "Permesas al aplikaĵo uzi la servon IMS por ekigi telefonvokojn sen via ago.",
        "permdesc_accessLocationExtraCommands": "Permesas al aplikaĵo aliri kromajn ordonojn por pozici-provizanto. Aplikaĵoj kun tiu ĉi permeso povas influi funkciadon de GPS aŭ aliaj pozici-trovaj servoj.",
        "permdesc_accessNetworkConditions": "Permesas al aplikaĵo observi staton de reto. Neniam uzata de kutimaj aplikaĵoj.",
        "permdesc_accessNetworkState": "Permesas al aplikaĵo legi informojn pri retaj konektoj – ekz. pri disponeblaj kaj konektitaj retoj.",
        "permdesc_accessNotifications": "Permesas al aplikaĵo aliri, kontroli kaj forigi sciigojn, inkluzivante tiujn, kiuj estas anoncitaj de aliaj aplikaĵoj.",
        "permdesc_accessWifiState": "Permesas  al aplikaĵo aliri informojn pri retojn Wi-Fi – ekz. ĉu Wi-Fi estas enŝaltita kaj nomojn de konektitaj aparatojn Wi-Fi.",
        "permdesc_accessWimaxState": "Permesas al aplikaĵo determini ĉu WiMAX estas aktiva kaj akiri informojn pri ĉiuj konektitaj retoj WiMAX.",
        "permdesc_access_notification_policy": "Permesas al aplikaĵo legi kaj ŝanĝi agordojn de reĝimo ne “ne ĝenu min”.",
        "permdesc_addVoicemail": "Permesas al aplikaĵo aldoni mesaĝojn al via voĉpoŝto.",
        "permdesc_answerPhoneCalls": "Permesas al aplikaĵo respondi al alvenantaj telefonvokoj.",
        "permdesc_bindCarrierMessagingService": "Permesas al posedanto krei ligon al la plej supera nivelo de interfaco de servo por transsendi mesaĝojn per provizanto. Neniam uzata de kutimaj aplikaĵoj.",
        "permdesc_bindCarrierServices": "Permesas al posedanto ligi al servoj de provizanto. Neniam uzata de kutimaj aplikaĵoj.",
        "permdesc_bindConditionProviderService": "Permesas al posedanto ligi al la plej supera nivelo de interfaco de servo por provizi kondiĉojn. Neniam uzata de kutimaj aplikaĵoj.",
        "permdesc_bindDreamService": "Permesas al posedanto ligi al la plej supera nivelo de interfaco de servo ekrankurteno. Neniam uzata de kutimaj aplikaĵoj.",
        "permdesc_bindNotificationListenerService": "Permesas al posedanto ligi al la plej supera nivelo de interfaco por servo sciig-ricevilo. Neniam uzata de kutimaj aplikaĵoj.",
        "permdesc_bind_connection_service": "Permesas al aplikaĵo interagi kun telefonaj servoj por fari/ricevi telefonvokojn.",
        "permdesc_bind_incall_service": "Permesas al aplikaĵo administri kiel kaj kiam la uzanto vidas la ekranon de telefonvoko.",
        "permdesc_bluetooth": "Permesas al aplikaĵo vidi agordojn de Bludento ĉe la telefono, kaj fari kaj akcepti konektojn kun kuplitajn aparatojn.",
        "permdesc_bluetoothAdmin": "Permesas al aplikaĵo agordi la lokan telefonon per Bludento, kaj serĉi kaj kupli forajn aparatojn.",
        "permdesc_bodySensors": "Permesas al aplikaĵo aliri datumojn de sentilojn, kiuj observas vian korpan staton – ekz. vian pulson.",
        "permdesc_broadcastSticky": "Permesas al aplikaĵo sendi persistajn elsendojn, kiuj restos aktivaj post fini konekton. Troa uzo povas malplirapidigi la aparaton aŭ malstabiligi ĝin pro tro uzo de memoro.",
        "permdesc_callPhone": "Permesas al aplikaĵo telefonvoki sen via ago. Povas kaŭzi neatenditajn pagojn aŭ telefonvokojn. La aplikaĵo ne povas telefonvoki alarmajn numerojn. Malicaj aplikaĵoj povas generi kostojn per fari telefonvokojn sen via permeso.",
        "permdesc_camera": "Tiu ĉi aplikaĵo povas en ĉiu momento fari fotojn kaj registri videojn per la fotilo.",
        "permdesc_changeNetworkState": "Permesas al aplikaĵo ŝanĝi staton de reta konekto.",
        "permdesc_changeTetherState": "Permesas al aplikaĵo ŝanĝi staton de reta konekto per alia aparato (tethering).",
        "permdesc_changeWifiMulticastState": "Permesas al aplikaĵo ricevi paketojn senditajn al ĉiuj aparatoj (ne nur al via) en reto Wi-Fi uzante plurelsendadon (multicast). Kaŭzas plian konsumon de energio ol en ne plurelsenda reĝimo.",
        "permdesc_changeWifiState": "Permesas al aplikaĵo konekti kaj malkonekti al retoj Wi-Fi kaj ŝanĝi agordojn de Wi-Fi.",
        "permdesc_changeWimaxState": "Permesas al aplikaĵo konekti kaj malkonekti la telefonon kun retoj WiMAX.",
        "permdesc_connection_manager": "Permesas al aplikaĵo administri telekomunikajn konektojn.",
        "permdesc_control_incall_experience": "Permesas al aplikaĵo liveri al uzanto eblon telefoni.",
        "permdesc_createNetworkSockets": "Permesas al aplikaĵo krei konekt‑interfacojn kaj uzi nekutimajn retajn protokolojn. La ret‑foliumilo kaj aliaj aplikaĵoj liveras rimedojn por sendi datumojn al la interreto, do ili ne bezonas tiun ĉi permeson.",
        "permdesc_disableKeyguard": "Permesas al aplikaĵo malaktivigi klavŝloson kaj rilatajn pasvortojn. Ekzemplo: la telefono malaktivigas klavŝloson dum ricevi alvenantan telefonvokon kaj reaktivigas ĝin je fino de telefona interparolado.",
        "permdesc_enableCarMode": "Permesas al aplikaĵo aktivigi aŭtomobilan reĝimon.",
        "permdesc_expandStatusBar": "Permesas al aplikaĵo mal-/etendi la statan breton.",
        "permdesc_foregroundService": "Permesas al aplikaĵo uzi servojn je malfono.",
        "permdesc_getAccounts": "Permesas al aplikaĵo akiri liston de kontoj konservitaj en la telefono. Povas inkluzivi ĉiujn kontojn kreitajn de instalitaj aplikaĵoj.",
        "permdesc_getPackageSize": "Permesas al aplikaĵo ricevi sian kodon, datumojn kaj grandon de kaŝmemoro.",
        "permdesc_getTasks": "Permesas al aplikaĵo ricevi informojn pri nuntempe kaj antaŭe funkciantaj taskoj. Tio ĉi ebligas la aplikaĵo akiri informojn pri kiuj aplikaĵoj estas uzataj ĉe la aparato.",
        "permdesc_handoverStatus": "Permesas al aplikaĵo ricevi informojn pri nunajn transigoj Android Beam.",
        "permdesc_install_shortcut": "Permesas al aplikaĵo aldoni ligilojn al la ĉefekrano sen via ago.",
        "permdesc_invokeCarrierSetup": "Permesas elvoki la agordan aplikaĵon de telekomunik‑provizanto. Neniam uzata de kutimaj aplikaĵoj.",
        "permdesc_killBackgroundProcesses": "Permesas al aplikaĵo fini fonajn taskojn de aliaj aplikaĵoj. Povas ĉesigi funkciadon de aliaj aplikaĵoj.",
        "permdesc_manageFingerprint": "Permesas al aplikaĵo aktivigi metodojn por aldoni kaj forigi ŝablonojn de fingrospuroj.",
        "permdesc_manageNetworkPolicy": "Permesas al aplikaĵo administri politikojn pri retoj kaj difini regulojn de aplikaĵoj.",
        "permdesc_manageOwnCalls": "Permesas al aplikaĵo enkursigi telefonvokojn tra la operaciumo por plibonigi ilian kvaliton.",
        "permdesc_manageProfileAndDeviceOwners": "Permesas al aplikaĵo agordi estrojn de profiloj kaj de aparato.",
        "permdesc_modifyAudioSettings": "Permesas al aplikaĵo modifi ĝeneralajn sonajn agordojn: sonfortecon kaj eligan laŭtparolilon.",
        "permdesc_modifyNetworkAccounting": "Permesas al aplikaĵo modifi kiel kalkuli uzadon de reto de aliaj aplikaĵoj. Neniam uzata de kutimaj aplikaĵoj.",
        "permdesc_nfc": "Permesas al aplikaĵo komuniki kun glumarkoj, kartoj kaj legiloj NFC (Near Field Communication).",
        "permdesc_persistentActivity": "Permesas al aplikaĵo por daŭre konservi siajn partojn en memoro. Povas malpliigi memoron disponeblan por aliaj aplikaĵoj kaj malrapidigi funkciadon de telefono.",
        "permdesc_processOutgoingCalls": "Permesas al aplikaĵo rigardi telefonnumeron de la elvenanta konekto, kaj ĉesigi aŭ alidirekti ĝin.",
        "permdesc_readCalendar": "Tiu ĉi aplikaĵo povas legi ĉiujn okazaĵojn konservitajn en via telefono, kaj kunhavigi aŭ konservi datumojn de via kalendaro.",
        "permdesc_readCallLog": "Tiu ĉi aplikaĵo povas legi vian historion de telefonvokoj."
    },
    "sidebars": {
        "donate": {
            "bank_transfer_name": "Nomo",
            "bitcoin_alt": "Donaci per Bitmono",
            "flattr_alt": "Donaci per Flattr",
            "heading": "Donaci",
            "hellotux": "👕 T-ĉemizoj 👕 el",
            "hellotux_alt": "HELLOTUX",
            "hellotux_donation": "F-Droid ricevos 3€ de ĉiu vendita T-ĉemizo.",
            "liberapay_alt": "Donaci per Liberapay",
            "litecoin_alt": "Donaci per Litecoin",
            "paypal_alt": "Donaci per PayPal",
            "powered_by_donations": "F-Droid estas subtenata per viaj donacoj!",
            "via_bank_transfer": "Ĝiro"
        },
        "lang": {
            "change": "Ŝanĝi"
        },
        "last_updated": {
            "heading": "Laste ĝisdatigitaj"
        },
        "latest_packages": {
            "heading": "Plej novaj aplikaĵoj"
        },
        "news": {
            "heading": "Novaĵoj"
        },
        "search": {
            "heading": "Serĉi aplikaĵojn",
            "noscript": "Postulas aktivan ĝavoskripton",
            "search": "Serĉi"
        }
    }
}
